…
``` r
accel_dat %>% 
  select(weekday, day_id, day)
```

    ## # A tibble: 50,400 x 3
    ## # Groups:   day [7]
    ##    weekday day_id day   
    ##    <chr>    <dbl> <chr> 
    ##  1 Weekday      1 Friday
    ##  2 Weekday      1 Friday
    ##  3 Weekday      1 Friday
    ##  4 Weekday      1 Friday
    ##  5 Weekday      1 Friday
    ##  6 Weekday      1 Friday
    ##  7 Weekday      1 Friday
    ##  8 Weekday      1 Friday
    ##  9 Weekday      1 Friday
    ## 10 Weekday      1 Friday
    ## # ... with 50,390 more rows
